[gd_scene load_steps=3 format=2]

[ext_resource path="res://playerf.gd" type="Script" id=1]

[sub_resource type="BoxShape" id=1]

[node name="playerf" type="KinematicBody"]
script = ExtResource( 1 )

[node name="CollisionShape" type="CollisionShape" parent="."]
transform = Transform( 0.25, 0, 0, 0, 0.25, 0, 0, 0, 0.25, 0, 0, 0 )
shape = SubResource( 1 )

[node name="x_rotation" type="Position3D" parent="."]

[node name="y_rotation" type="Position3D" parent="x_rotation"]

[node name="floating_cam" type="Camera" parent="x_rotation/y_rotation"]
